{
    "modules":[
        {
        "id":1,
        "moduleid": "module12",
        "mappedto": "Sewage",
        "type": "st-ul-01",
        "status": "active",
        "length":50,
        "value":25
        },
        {
            "id":2,            
            "moduleid": "module121124",
            "mappedto": "Garbagebin",
            "type": "st-ul-01",
            "status": "inactive",
            "length":50,
            "value": 30
        },
        {
            "id":3,
            "moduleid": "module1212",
            "mappedto": "Home",
            "type": "st-ul-02",
            "status": "active",
            "length":50,
            "value": 10
        },
        {
            "id":4,
            "moduleid": "module12",
            "mappedto": "Sewage",
            "type": "st-ul-03",
            "status": "active",
            "length":50,
            "value": 21
        },
        {
            "id":5,
            "moduleid": "module12",
            "mappedto": "Sewage",
            "type": "st-ul-01",
            "status": "active",
            "length":50,
            "value": 28
        },
        {
            "id":6,
            "moduleid": "module12",
            "mappedto": "Sewage",
            "type": "st-ul-01",
            "status": "active",
            "length":50,
            "value": 35
        },
        {
            "id":7,
            "moduleid": "module12",
            "mappedto": "Sewage",
            "type": "st-ul-01",
            "status": "active",
            "length":50,
            "value": 50
         }
    ]
}